{
  "project_info": {
    "project_number": "602978281902",
    "firebase_url": "https://mapstudio-192221.firebaseio.com",
    "project_id": "mapstudio-192221",
    "storage_bucket": "mapstudio-192221.appspot.com"
  },
  "client": [
    {
      "client_info": {
        "mobilesdk_app_id": "1:602978281902:android:7746c5c696330c0e",
        "android_client_info": {
          "package_name": "eu.fukysoft.multymaps"
        }
      },
      "oauth_client": [
        {
          "client_id": "602978281902-t2lgmhfokhhhoi0o5tf7nu2ga6mosd1c.apps.googleusercontent.com",
          "client_type": 1,
          "android_info": {
            "package_name": "eu.fukysoft.multymaps",
            "certificate_hash": "5c1c2f7196dd0e3266ae58562c3db2cbdc52c609"
          }
        },
        {
          "client_id": "602978281902-9drjvdqm48b01eqs63qmbopj4noc5827.apps.googleusercontent.com",
          "client_type": 3
        }
      ],
      "api_key": [
        {
          "current_key": "AIzaSyDKy07bEDa_a-LPZq5FHSg_X4-NsYu3mMg"
        }
      ],
      "services": {
        "analytics_service": {
          "status": 1
        },
        "appinvite_service": {
          "status": 2,
          "other_platform_oauth_client": [
            {
              "client_id": "602978281902-9drjvdqm48b01eqs63qmbopj4noc5827.apps.googleusercontent.com",
              "client_type": 3
            }
          ]
        },
        "ads_service": {
          "status": 2
        }
      }
    },
    {
      "client_info": {
        "mobilesdk_app_id": "1:602978281902:android:9649c36173e68cb7",
        "android_client_info": {
          "package_name": "eu.fukysoft.multymaps.pro"
        }
      },
      "oauth_client": [
        {
          "client_id": "602978281902-tp8gv6qodjhq0sca0bb90nbpb740pmnp.apps.googleusercontent.com",
          "client_type": 1,
          "android_info": {
            "package_name": "eu.fukysoft.multymaps.pro",
            "certificate_hash": "5c1c2f7196dd0e3266ae58562c3db2cbdc52c609"
          }
        },
        {
          "client_id": "602978281902-9drjvdqm48b01eqs63qmbopj4noc5827.apps.googleusercontent.com",
          "client_type": 3
        }
      ],
      "api_key": [
        {
          "current_key": "AIzaSyDKy07bEDa_a-LPZq5FHSg_X4-NsYu3mMg"
        }
      ],
      "services": {
        "analytics_service": {
          "status": 1
        },
        "appinvite_service": {
          "status": 2,
          "other_platform_oauth_client": [
            {
              "client_id": "602978281902-9drjvdqm48b01eqs63qmbopj4noc5827.apps.googleusercontent.com",
              "client_type": 3
            }
          ]
        },
        "ads_service": {
          "status": 2
        }
      }
    }
  ],
  "configuration_version": "1"
}