[
    {
        "featureType": "water",
        "elementType": "all",
        "stylers": [
            {
                "hue": "#252525"
            },
            {
                "saturation": -100
            },
            {
                "lightness": -81
            },
            {
                "visibility": "on"
            }
        ]
    },
    {
        "featureType": "landscape",
        "elementType": "all",
        "stylers": [
            {
                "hue": "#666666"
            },
            {
                "saturation": -100
            },
            {
                "lightness": -55
            },
            {
                "visibility": "on"
            }
        ]
    },
    {
        "featureType": "poi",
        "elementType": "geometry",
        "stylers": [
            {
                "hue": "#555555"
            },
            {
                "saturation": -100
            },
            {
                "lightness": -57
            },
            {
                "visibility": "on"
            }
        ]
    },
    {
        "featureType": "road",
        "elementType": "all",
        "stylers": [
            {
                "hue": "#777777"
            },
            {
                "saturation": -100
            },
            {
                "lightness": -6
            },
            {
                "visibility": "on"
            }
        ]
    },
    {
        "featureType": "administrative",
        "elementType": "all",
        "stylers": [
            {
                "hue": "#cc9900"
            },
            {
                "saturation": 100
            },
            {
                "lightness": -22
            },
            {
                "visibility": "on"
            }
        ]
    },
    {
        "featureType": "transit",
        "elementType": "all",
        "stylers": [
            {
                "hue": "#444444"
            },
            {
                "saturation": 0
            },
            {
                "lightness": -64
            },
            {
                "visibility": "off"
            }
        ]
    },
    {
        "featureType": "poi",
        "elementType": "labels",
        "stylers": [
            {
                "hue": "#555555"
            },
            {
                "saturation": -100
            },
            {
                "lightness": -57
            },
            {
                "visibility": "off"
            }
        ]
    }
]